<?xml version="1.0" encoding="UTF-8" standalone="no"?>
<svg xmlns:rdf="http://www.w3.org/1999/02/22-rdf-syntax-ns#" xmlns="http://www.w3.org/2000/svg" version="1.1" xmlns:cc="http://creativecommons.org/ns#" xmlns:xlink="http://www.w3.org/1999/xlink" viewBox="0 0 24.000001 24" xmlns:dc="http://purl.org/dc/elements/1.1/">
<metadata>
<rdf:RDF>
<cc:Work rdf:about="">
<dc:format>image/svg+xml</dc:format>
<dc:type rdf:resource="http://purl.org/dc/dcmitype/StillImage"/>
</cc:Work>
</rdf:RDF>
</metadata>
<defs>
<linearGradient id="d" y2="215.0088" xlink:href="#a" gradientUnits="userSpaceOnUse" x2="18.70757" gradientTransform="matrix(2.163766 0 0 .677519 981.9622 400.4873)" y1="218.5568" x1="20.10132"/>
<linearGradient id="c" y2="220.3475" xlink:href="#a" gradientUnits="userSpaceOnUse" x2="18.5289" gradientTransform="matrix(1.628503 0 0 .405944 991.836 459.4251)" y1="213.6631" x1="15.24248"/>
<linearGradient id="g" y2="215.0088" xlink:href="#a" gradientUnits="userSpaceOnUse" x2="18.70757" gradientTransform="matrix(2.832796,0,0,1.012546,969.5753,320.266)" y1="218.5568" x1="20.10132"/>
<linearGradient id="b">
<stop stop-color="#5a5a5a" offset="0"/>
<stop offset="1"/>
</linearGradient>
<linearGradient id="h" y2="209.2774" xlink:href="#b" gradientUnits="userSpaceOnUse" x2="14.01084" gradientTransform="matrix(2.376547 0 0 .715004 987.5221 390.567)" y1="203.3658" x1="10.04167"/>
<linearGradient id="i" y2="220.3475" xlink:href="#a" gradientUnits="userSpaceOnUse" x2="18.5289" gradientTransform="matrix(2.629849 0 0 .794339 973.2757 359.133)" y1="213.6631" x1="15.24248"/>
<linearGradient id="a">
<stop stop-color="#fff" offset="0"/>
<stop stop-color="#98b6d3" offset="1"/>
</linearGradient>
<linearGradient id="e" y2="209.2774" xlink:href="#b" gradientUnits="userSpaceOnUse" x2="14.01084" gradientTransform="matrix(1.876376 0 0 .566024 994.7794 429.2398)" y1="203.3658" x1="10.04167"/>
<linearGradient id="f" y2="220.3475" xlink:href="#a" gradientUnits="userSpaceOnUse" x2="18.5289" gradientTransform="matrix(2.13203 0 0 .606678 982.5022 408.3478)" y1="213.6631" x1="15.24248"/>
<linearGradient id="j" y2="215.0088" xlink:href="#a" gradientUnits="userSpaceOnUse" x2="18.70757" gradientTransform="matrix(3.494239,0,0,1.325753,957.3304,243.8052)" y1="218.5568" x1="20.10132"/>
<linearGradient id="k" y2="209.2774" xlink:href="#b" gradientUnits="userSpaceOnUse" x2="14.01084" gradientTransform="matrix(2.8752 0 0 .854533 980.2863 352.892)" y1="203.3658" x1="10.04167"/>
</defs>
<g transform="translate(-1010,-528)">
<rect style="color:#000000" height="24" width="24" y="528" x="982" stroke-width=".531496" fill="none"/>
<g stroke-linejoin="round" stroke-miterlimit="0">
<rect style="color:#000000" height="5.980974" width="22.99783" stroke="url(#k)" y="528.5066" x="1010.5" stroke-width="1.000002" fill="none"/>
<rect style="color:#000000" fill-rule="evenodd" height="3.982274" width="20.96796" stroke="url(#i)" stroke-linecap="round" y="529.5177" x="1011.52" stroke-width="1.000003" fill="url(#j)"/>
</g>
<rect stroke-linejoin="round" style="color:#000000" height="5.004396" width="19.00926" stroke="url(#h)" stroke-miterlimit="0" y="537.5071" x="1012.495" stroke-width="1.0000018" fill="none"/>
<rect stroke-linejoin="round" style="color:#000000" fill-rule="evenodd" height="3.041469" width="16.99882" stroke="url(#f)" stroke-linecap="round" stroke-miterlimit="0" y="538.4794" x="1013.507" stroke-width="1.000003" fill="url(#g)"/>
<rect stroke-linejoin="round" style="color:#000000" height="3.961664" width="15.00856" stroke="url(#e)" stroke-miterlimit="0" y="545.563" x="1014.497" stroke-width="1.0000019" fill="none"/>
<rect stroke-linejoin="round" style="color:#000000" fill-rule="evenodd" height="2.035122" width="12.98416" stroke="url(#c)" stroke-linecap="round" stroke-miterlimit="0" y="546.4993" x="1015.518" stroke-width="1.000003" fill="url(#d)"/>
</g>
</svg>
