<?xml version="1.0" encoding="UTF-8" standalone="no"?>
<svg xmlns:rdf="http://www.w3.org/1999/02/22-rdf-syntax-ns#" xmlns="http://www.w3.org/2000/svg" version="1.1" xmlns:cc="http://creativecommons.org/ns#" xmlns:xlink="http://www.w3.org/1999/xlink" viewBox="0 0 16 16" xmlns:dc="http://purl.org/dc/elements/1.1/">
<metadata>
<rdf:RDF>
<cc:Work rdf:about="">
<dc:format>image/svg+xml</dc:format>
<dc:type rdf:resource="http://purl.org/dc/dcmitype/StillImage"/>
</cc:Work>
</rdf:RDF>
</metadata>
<defs>
<linearGradient id="a">
<stop stop-color="#fff" offset="0"/>
<stop stop-color="#98b6d3" offset="1"/>
</linearGradient>
<linearGradient id="c" y2="10" xlink:href="#a" gradientUnits="userSpaceOnUse" x2="10"/>
<linearGradient id="e" y2="1" xlink:href="#a" gradientUnits="userSpaceOnUse" y1="8" x1="8"/>
<linearGradient id="b" y2="16" xlink:href="#a" gradientUnits="userSpaceOnUse" x2="16" y1="3" x1="3"/>
<linearGradient id="d" y2="4" xlink:href="#a" gradientUnits="userSpaceOnUse" x2="4" y1="14" x1="14"/>
</defs>
<rect stroke-linejoin="round" height="9" width="9" stroke="#222" y=".5" x=".5" fill="none"/>
<rect height="7" width="7" stroke="url(#c)" y="1.5" x="1.5" fill="url(#e)"/>
<rect stroke-linejoin="round" height="12" width="12" stroke="#222" y="3.5" x="3.5" fill="none"/>
<rect height="10" width="10" stroke="url(#b)" y="4.5" x="4.5" fill="url(#d)"/>
</svg>
