<?xml version="1.0" encoding="UTF-8" standalone="no"?>
<svg xmlns:rdf="http://www.w3.org/1999/02/22-rdf-syntax-ns#" xmlns="http://www.w3.org/2000/svg" version="1.0" xmlns:cc="http://creativecommons.org/ns#" xmlns:xlink="http://www.w3.org/1999/xlink" viewBox="0 0 96 96" xmlns:dc="http://purl.org/dc/elements/1.1/">
<defs>
<linearGradient id="b">
<stop stop-color="#3465a4" offset="0"/>
<stop stop-color="#729fcf" offset=".86907172"/>
</linearGradient>
<linearGradient id="a" y2="914.67297" xlink:href="#b" gradientUnits="userSpaceOnUse" y1="909.65936" x2="1179.2837" x1="1180.5682"/>
</defs>
<metadata>
<rdf:RDF>
<cc:Work rdf:about="">
<dc:format>image/svg+xml</dc:format>
<dc:type rdf:resource="http://purl.org/dc/dcmitype/StillImage"/>
<dc:title>feMerge Filter Primitive Example</dc:title>
<dc:date>2007-07-03</dc:date>
<dc:creator>
<cc:Agent>
<dc:title>Felipe Corrêa da Silva Sanches</dc:title>
</cc:Agent>
</dc:creator>
<dc:rights>
<cc:Agent>
<dc:title>Felipe Corrêa da Silva Sanches</dc:title>
</cc:Agent>
</dc:rights>
<dc:publisher>
<cc:Agent>
<dc:title>Felipe Corrêa da Silva Sanches</dc:title>
</cc:Agent>
</dc:publisher>
<dc:identifier/>
<dc:source/>
<dc:relation/>
<dc:language/>
<dc:subject>
<rdf:Bag>
<rdf:li>feMerge Example</rdf:li>
</rdf:Bag>
</dc:subject>
<dc:coverage/>
<dc:description>this is an image originally intended to be used in Inkscape</dc:description>
<dc:contributor>
<cc:Agent>
<dc:title/>
</cc:Agent>
</dc:contributor>
<cc:license rdf:resource="http://creativecommons.org/licenses/by-sa/3.0/"/>
</cc:Work>
<cc:License rdf:about="http://creativecommons.org/licenses/by-sa/3.0/">
<cc:permits rdf:resource="http://creativecommons.org/ns#Reproduction"/>
<cc:permits rdf:resource="http://creativecommons.org/ns#Distribution"/>
<cc:requires rdf:resource="http://creativecommons.org/ns#Notice"/>
<cc:requires rdf:resource="http://creativecommons.org/ns#Attribution"/>
<cc:permits rdf:resource="http://creativecommons.org/ns#DerivativeWorks"/>
<cc:requires rdf:resource="http://creativecommons.org/ns#ShareAlike"/>
</cc:License>
</rdf:RDF>
</metadata>
<g transform="translate(-155.36416,-264.88732)">
<rect opacity=".43324938" stroke-linejoin="round" stroke-dasharray="2.94170605, 5.88341212" fill-rule="evenodd" fill-opacity=".23049646" height="86.714088" width="86.788124" stroke="#000" stroke-linecap="round" y="269.57886" x="159.95854" stroke-width="2.9417062"/>
<g transform="matrix(1.3344192,0,0,1.3344192,-74.252035,-91.584765)">
<rect opacity=".24267782" fill-opacity="0" height="36.369747" width="36.369732" y="273.86215" x="204.40623"/>
<path d="m218.95717 300.72515l18.99274-8.64449c1.04851-0.47719 0.66284-5.01685-1.64725-9.40217-2.31008-4.38536-5.67413-6.96396-6.72249-6.48678l-18.99289 8.64446" stroke="#204a87" stroke-width="1.515406" fill="#729fcf"/>
<path d="m220.33619 298.47311l16.2153-7.4768c1.04381-0.47896 0.40325-3.64296-1.89668-8.04464-2.29993-4.40174-4.2786-5.50156-5.32226-5.0226l-15.98238 7.30318" stroke-opacity=".50196078" stroke="#fff" stroke-width="1.5154062" fill="none"/>
<path fill-opacity=".45263157" fill="#fff" d="m212.9254 284.61325c2.34403 1.74128 4.37134 4.94142 4.37134 4.94142 13.25495-2.4911 9.20897-8.59269 19.7906-2.69915-1.55814-4.66845-4.69852-9.542-7.62083-9.79709l-16.54111 7.55482z"/>
<path d="m222.4964 285.51187c-2.9361-9.83852-10.51313-9.83852-7.60385-3.34236" stroke="#2e3436" stroke-width="4.5462184" fill="none"/>
<path stroke-linejoin="round" d="m14.1875 14.875a1.3125 1.3125 0 0 1 -1.3125 1.3125 1.3125 1.3125 0 0 1 -1.3125 -1.3125 1.3125 1.3125 0 0 1 1.3125 -1.3125 1.3125 1.3125 0 0 1 1.3125 1.3125z" transform="matrix(2.3091904,0,0,2.3091904,193.61806,253.9093)" stroke="#2e3436" stroke-width=".65625" fill="#d3d7cf"/>
<path d="m223.2541 288.1638c-2.17839-12.78624-11.27083-12.45138-8.36155-6.16178" stroke="#d3d7cf" stroke-width="1.5154061" fill="none"/>
<path d="m1181.6196 912.95593a2.3422911 5.038136 0 0 1 -2.3422911 5.038136 2.3422911 5.038136 0 0 1 -2.3422911 -5.038136 2.3422911 5.038136 0 0 1 2.3422911 -5.038136 2.3422911 5.038136 0 0 1 2.3422911 5.038136z" transform="matrix(1.149058 -.5428996 .8989446 1.5842994 -1960.7761 -513.45798)" stroke="#204a87" stroke-width=".99739033" fill="url(#a)"/>
<g transform="matrix(-1,0,0,3.6216626,435.37382,-772.96052)">
<path d="m215.47807 300.21453c-7.15255 0.15934-8.98373 1.2286-9.00029 2.31008-0.01809 1.18925 2.47868 2.39343 9.97207 2.41846 27.59178 0.09217 26.56296-4.5271 3.68982-4.60865-0.40618-0.68581-1.01303-1.75963-2.09722-4.86934-1.57573-0.33645-1.48634 3.20976-2.56438 4.74945z" stroke="#5e85f9" stroke-width="1.3271389" fill="none"/>
</g>
</g>
<g transform="matrix(1.3344192,0,0,1.3344192,-74.252035,-91.584765)">
<rect opacity=".24267782" fill-opacity="0" transform="scale(-1,1)" height="24" width="23.999989" y="285.15625" x="-200.9776"/>
<path d="m191.37559 302.88283l-12.5331-5.70441c-0.6919-0.31489-0.4374-3.31056 1.087-6.20439 1.5244-2.89385 3.7443-4.59544 4.4361-4.28055l12.5332 5.70438" stroke="#204a87" stroke-width=".99999988" fill="#729fcf"/>
<path d="m190.46559 301.39673l-10.7003-4.93386c-0.6888-0.31606-0.2661-2.40395 1.2516-5.30857 1.5177-2.90466 2.8234-3.63042 3.5121-3.31436l10.5466 4.81929" stroke-opacity=".50196078" stroke="#fff" fill="none"/>
<path fill-opacity=".45263157" fill="#fff" d="m195.35589 292.25076c-1.5468 1.14905-2.8846 3.26079-2.8846 3.26079-8.7468-1.64385-6.0769-5.67022-13.0596-1.78114 1.0282-3.08066 3.1005-6.29666 5.0289-6.46499l10.9153 4.98534z"/>
<path d="m189.04009 292.84375c1.9375-6.49233 6.9375-6.49233 5.0177-2.20559" stroke="#2e3436" stroke-width="3" fill="none"/>
<path stroke-linejoin="round" d="m14.1875 14.875a1.3125 1.3125 0 0 1 -1.3125 1.3125 1.3125 1.3125 0 0 1 -1.3125 -1.3125 1.3125 1.3125 0 0 1 1.3125 -1.3125 1.3125 1.3125 0 0 1 1.3125 1.3125z" transform="matrix(-1.5238095,0,0,1.5238095,208.09659,271.98956)" stroke="#2e3436" stroke-width=".65625" fill="#d3d7cf"/>
<path d="m188.54009 294.59373c1.4375-8.4375 7.4375-8.21653 5.5177-4.06609" stroke="#d3d7cf" stroke-width=".99999994" fill="none"/>
<path d="m1181.6196 912.95593a2.3422911 5.038136 0 0 1 -2.3422911 5.038136 2.3422911 5.038136 0 0 1 -2.3422911 -5.038136 2.3422911 5.038136 0 0 1 2.3422911 -5.038136 2.3422911 5.038136 0 0 1 2.3422911 5.038136z" transform="matrix(-.7582508 -.3582535 -.5932037 1.0454619 1629.7578 -234.38773)" stroke="#204a87" stroke-width=".99739033" fill="url(#a)"/>
<g fill-opacity=".20921984" fill="#ff1" transform="matrix(-1,0,0,4.9565903,381.6158,-1179.0015)">
<path d="m190.45801 301.65175c4.73501 0.10215 5.94726 0.78766 5.95822 1.481 0.01198 0.76243-1.64945 1.48956-6.60155 1.55048-27.93865 0.34368-29.47426-3.10562-2.44267-2.95462 0.26889-0.43967 0.67063-1.12811 1.38836-3.12175 1.04315-0.2157 0.98397 2.05779 1.69764 3.04489z" stroke="#e14144" stroke-width=".86459142" fill="none"/>
</g>
</g>
<path stroke-linejoin="round" d="m54.731485 83.7062c-3.721592-0.303255-3.825598-0.358502-2.394033-1.271723 3.46663-2.211417 5.123678-5.481159 4.288847-8.462892-0.70851-2.530552-3.74485-5.308582-7.315445-6.693112-0.864035-0.335034-1.570966-0.679591-1.570966-0.765679 0-0.255667 4.041116-0.797241 7.817785-1.047702 1.937122-0.128467 3.552974-0.27371 3.590788-0.322767 0.067253-0.087249 1.40992-9.789442 1.575314-11.383309 0.088344-0.851377 0.131192-0.559023 0.886739 6.050421 0.593713 5.193734 0.257355 4.667409 3.288083 5.145113 5.813959 0.916399 8.390957 3.201941 9.067676 8.04214 0.211265 1.511043-0.273616 4.304966-0.998956 5.756109-1.243625 2.488033-3.641025 4.178878-6.906469 4.871024-1.962786 0.416032-6.802872 0.451227-11.329363 0.08238v-0.000003z" fill-rule="evenodd" transform="translate(155.36416,264.88732)" stroke="#000" stroke-linecap="round" stroke-width=".30000001" fill="#00f"/>
<path stroke-linejoin="round" d="m44.378543 81.610235c-7.484485-2.667716-9.811748-7.317165-5.545836-11.079575 0.683821-0.603108 1.80085-1.379778 2.482277-1.725927 1.186536-0.602726 1.307252-0.613426 2.852803-0.252875 2.282894 0.532564 5.097183 1.632205 6.529439 2.551282 4.952293 3.177874 4.347092 6.934693-1.596346 9.909478-2.481928 1.242245-2.800621 1.282576-4.722337 0.597615v0.000002z" fill-rule="evenodd" transform="translate(155.36416,264.88732)" stroke="#000" stroke-linecap="round" stroke-width=".30000001" fill="#ffa400"/>
<path stroke-linejoin="round" d="m26.284563 84.021293c-5.128374-0.590699-7.559218-3.787047-7.258103-9.543777 0.153802-2.940402 0.746267-4.44544 2.301381-5.84618 1.075041-0.968322 3.219426-1.830303 4.553328-1.830303 0.826762 0 0.888358-0.207163 1.260421-4.239096l0.316031-3.424769 0.334435 3.361344c0.183933 1.84874 0.400756 3.694118 0.481823 4.100841l0.147397 0.739495h4.171619 4.171619l-1.201589 1.336463c-1.777697 1.977223-2.433221 3.525284-2.451592 5.789588-0.011214 1.381714 0.139041 2.21973 0.564934 3.150852 0.744772 1.628283 2.754563 3.788278 4.706821 5.058589l1.533959 0.998131-1.265049 0.175898c-2.139232 0.297441-10.296161 0.411493-12.367438 0.172921l0.000003 0.000003z" fill-rule="evenodd" transform="translate(155.36416,264.88732)" stroke="#000" stroke-linecap="round" stroke-width=".3" fill="#f00"/>
</g>
</svg>
