<?xml version="1.0" encoding="UTF-8" standalone="no"?>
<svg xmlns:rdf="http://www.w3.org/1999/02/22-rdf-syntax-ns#" xmlns="http://www.w3.org/2000/svg" version="1.1" xmlns:cc="http://creativecommons.org/ns#" viewBox="0 0 16 16" xmlns:dc="http://purl.org/dc/elements/1.1/">
<metadata>
<rdf:RDF>
<cc:Work rdf:about="">
<dc:format>image/svg+xml</dc:format>
<dc:type rdf:resource="http://purl.org/dc/dcmitype/StillImage"/>
</cc:Work>
</rdf:RDF>
</metadata>
<g stroke-linecap="round" stroke="blue" fill="none">
<path d="m2.5 0.5v15"/>
<path d="m7.5 0.5v15"/>
<path d="m12.5 0.5v15"/>
<path d="m0.5 6.3 10-5.8"/>
<path d="m0.5 12 15-8.7"/>
<path d="m4.5 15.5 11-6.4"/>
<path d="m4.5 0.5 11 6.4"/>
<path d="m0.5 4 15 8.7"/>
<path d="m0.5 9.7 10 5.8"/>
</g>
</svg>
