<?xml version="1.0" encoding="UTF-8" standalone="no"?>
<svg xmlns:rdf="http://www.w3.org/1999/02/22-rdf-syntax-ns#" xmlns="http://www.w3.org/2000/svg" version="1.1" xmlns:cc="http://creativecommons.org/ns#" xmlns:xlink="http://www.w3.org/1999/xlink" viewBox="0 0 15.99992 15.999974" xmlns:dc="http://purl.org/dc/elements/1.1/">
<metadata>
<rdf:RDF>
<cc:Work rdf:about="">
<dc:format>image/svg+xml</dc:format>
<dc:type rdf:resource="http://purl.org/dc/dcmitype/StillImage"/>
</cc:Work>
</rdf:RDF>
</metadata>
<defs>
<linearGradient id="b" y2="184.8026" xlink:href="#e" gradientUnits="userSpaceOnUse" x2="979.8044" y1="182.4686" x1="974.1975"/>
<linearGradient id="e">
<stop stop-color="#fff" offset="0"/>
<stop stop-color="#aaa" offset="1"/>
</linearGradient>
<linearGradient id="a">
<stop stop-color="#5a5a5a" offset="0"/>
<stop offset="1"/>
</linearGradient>
<linearGradient id="c" y2="181.7098" xlink:href="#a" gradientUnits="userSpaceOnUse" x2="977.9335" y1="178.3186" x1="968.8881"/>
<linearGradient id="d" y2="184.715" xlink:href="#a" gradientUnits="userSpaceOnUse" x2="974.5747" y1="178.9373" x1="967.739"/>
</defs>
<g transform="translate(-965,-170)" fill-rule="evenodd">
<path opacity=".4809384" stroke-linejoin="round" style="color:#000000" d="m969.5 185.5h11l-4-5h-11l4 5z" stroke="url(#d)" stroke-linecap="square" stroke-miterlimit="0" stroke-width=".9999474" fill="url(#b)"/>
<path stroke-linejoin="round" style="color:#000000" d="m969.5 182.5h11l-4-5h-11l4 5z" stroke="url(#c)" stroke-linecap="square" stroke-miterlimit="0" stroke-width=".9999474" fill="url(#b)"/>
<path d="m967 172v-2h2v2h2v2h-2v2h-2v-2h-2v-2h2z"/>
</g>
</svg>
