<?xml version="1.0" encoding="UTF-8" standalone="no"?>
<svg xmlns:rdf="http://www.w3.org/1999/02/22-rdf-syntax-ns#" xmlns="http://www.w3.org/2000/svg" version="1.1" xmlns:cc="http://creativecommons.org/ns#" viewBox="0 0 16 16" xmlns:dc="http://purl.org/dc/elements/1.1/">
<metadata>
<rdf:RDF>
<cc:Work rdf:about="">
<dc:format>image/svg+xml</dc:format>
<dc:type rdf:resource="http://purl.org/dc/dcmitype/StillImage"/>
</cc:Work>
</rdf:RDF>
</metadata>
<g transform="translate(-319.35751,-107.8581)">
<rect style="color:#000000" fill-opacity="0" height="16" width="16" y="107.8581" x="319.3575" stroke-width=".9868108"/>
<g transform="translate(-.0655561 .8269009)">
<path d="m334.5089 115.0312h-14.1716" stroke="#000" stroke-width="1.4" fill="none"/>
</g>
</g>
</svg>
