<?xml version="1.0" encoding="UTF-8" standalone="no"?>
<svg xmlns:rdf="http://www.w3.org/1999/02/22-rdf-syntax-ns#" xmlns="http://www.w3.org/2000/svg" version="1.1" xmlns:cc="http://creativecommons.org/ns#" viewBox="0 0 16 16" xmlns:dc="http://purl.org/dc/elements/1.1/">
<metadata>
<rdf:RDF>
<cc:Work rdf:about="">
<dc:format>image/svg+xml</dc:format>
<dc:type rdf:resource="http://purl.org/dc/dcmitype/StillImage"/>
</cc:Work>
</rdf:RDF>
</metadata>
<path d="m0 0v5l1.5-1.5 2 2-1.5 1.5h5v-5l-1.5 1.5-2-2 1.5-1.5z"/>
<path d="m9 9v5l1.5-1.5 2 2-1.5 1.5h5v-5l-1.5 1.5-2-2 1.5-1.5z"/>
<path d="m16 0v5l-1.5-1.5-2 2 1.5 1.5h-5v-5l1.5 1.5 2-2-1.5-1.5z"/>
<path d="m7 9v5l-1.5-1.5-2 2 1.5 1.5h-5v-5l1.5 1.5 2-2-1.5-1.5z"/>
</svg>
