<?xml version="1.0" encoding="UTF-8" standalone="no"?>
<svg xmlns:rdf="http://www.w3.org/1999/02/22-rdf-syntax-ns#" xmlns="http://www.w3.org/2000/svg" version="1.1" xmlns:cc="http://creativecommons.org/ns#" viewBox="0 0 16 16.0164" xmlns:dc="http://purl.org/dc/elements/1.1/">
<metadata>
<rdf:RDF>
<cc:Work rdf:about="">
<dc:format>image/svg+xml</dc:format>
<dc:type rdf:resource="http://purl.org/dc/dcmitype/StillImage"/>
</cc:Work>
</rdf:RDF>
</metadata>
<g transform="matrix(1,0,0,-1,45,191)">
<rect style="color:#000000" height="16" width="16" y="175" x="-45" fill="none"/>
<path stroke-linejoin="round" d="m-44.5 175.4836s2 3.5 7.5 3.5 7.5-3.5 7.5-3.5" stroke="#646464" stroke-linecap="round" stroke-miterlimit="0" stroke-width="1.0000004" fill="none"/>
<rect stroke-linejoin="round" style="color:#000000" fill-rule="evenodd" fill-opacity=".3921569" height="4.975991" width="5.006001" stroke="#00f" stroke-linecap="round" stroke-miterlimit="0" y="176.5076" x="-39.506" fill="#6464ff"/>
<path fill-rule="evenodd" d="m-38 183h2v3h3v2h-3v3h-2v-3h-3v-2h3v-3z"/>
</g>
</svg>
