<?xml version="1.0" encoding="UTF-8" standalone="no"?>
<svg xmlns:rdf="http://www.w3.org/1999/02/22-rdf-syntax-ns#" xmlns="http://www.w3.org/2000/svg" version="1.1" xmlns:cc="http://creativecommons.org/ns#" viewBox="0 0 16 16" xmlns:dc="http://purl.org/dc/elements/1.1/">
<metadata>
<rdf:RDF>
<cc:Work rdf:about="">
<dc:format>image/svg+xml</dc:format>
<dc:type rdf:resource="http://purl.org/dc/dcmitype/StillImage"/>
</cc:Work>
</rdf:RDF>
</metadata>
<path stroke-linejoin="round" d="m2 5.2c-1.3 4.6 0.6 6.6 0.9 6.6 0.6 0.1 3.7-0.8 4.3-1.5-0.7-0.8-1.5-1.2-2.6-2-1-0.7-2.3-1.5-2.6-3.1zm2.5-1.2c-0.3 0.8-0.2 1.6 0.2 2.3 0.3 0.6 0.9 1 1.5 1.3 0.5 0.2 1.1 0.4 1.8 0.4-1.5-0.9-2.3-1.6-2.9-2.4-0.5-0.8-0.6-1.5-0.6-1.6zm2.8-1c-1 2 0.4 2.8 1.8 3.1-1.3-1-1.9-2.7-1.8-3.1zm3.5-2.5c-0.6 0.3-0.5 1.1-0.8 1.5-0.5 0.7-1 0.9-0.8 1.4 0.4 0.8 0.5 0.4 1.5 0.5 0.3 0 1.3 1 1.6 0.9-1-1.5-1.5-2.7-1.5-4.3z" stroke="#4d4d4d" fill="#fff"/>
<path fill="none" stroke="green" d="m2 13c1-5 6-10 11-11"/>
<circle stroke="blue" cy="14" cx="2" r="1" fill="none"/>
<circle stroke="blue" cy="2" cx="14" r="1" fill="none"/>
<path stroke-linejoin="round" d="m15.5 7.5v8-4l-6 4v-8l6 4z" stroke="#222" stroke-linecap="round" fill="#ffd400"/>
<path d="m10.5 13.6 3.2-2.125" stroke="#fff" stroke-linecap="round" fill="none"/>
</svg>
