<?xml version="1.0" encoding="UTF-8" standalone="no"?>
<svg xmlns:rdf="http://www.w3.org/1999/02/22-rdf-syntax-ns#" xmlns="http://www.w3.org/2000/svg" version="1.1" xmlns:cc="http://creativecommons.org/ns#" xmlns:xlink="http://www.w3.org/1999/xlink" viewBox="0 0 29.631635 26.445578" xmlns:dc="http://purl.org/dc/elements/1.1/">
<metadata>
<rdf:RDF>
<cc:Work rdf:about="">
<dc:format>image/svg+xml</dc:format>
<dc:type rdf:resource="http://purl.org/dc/dcmitype/StillImage"/>
</cc:Work>
</rdf:RDF>
</metadata>
<defs>
<linearGradient id="a">
<stop stop-color="#1caf19" offset="0"/>
<stop stop-color="#6df668" offset="1"/>
</linearGradient>
<linearGradient id="b" y2="322.8861" xlink:href="#a" gradientUnits="userSpaceOnUse" x2="395.2692" gradientTransform="translate(.3379059 -.1655273)" y1="322.8861" x1="371.2368"/>
<linearGradient id="c" y2="318.0103" xlink:href="#a" gradientUnits="userSpaceOnUse" x2="375.3615" gradientTransform="matrix(.8269532 0 0 .8236011 90.7184 44.23329)" y1="338.0772" x1="348.6006"/>
</defs>
<g transform="translate(-371.57471,-306.05262)">
<path d="m373.3679 331.8837c-0.5937 0-1.0937 0.4999-1.0937 1.0937v8.1875h-6.625c-0.5938 0-1.0938 0.4687-1.0938 1.0625v18.9688c0 0.4139 0.2519 0.7588 0.5938 0.9375 0.026 0.0136 0.0353 0.051 0.0625 0.0625 0.1783 0.3431 0.5226 0.5937 0.9375 0.5937h24.625c0.5938 0 1.0938-0.4687 1.0937-1.0625v-8.7187h6.125c0.5938 0 1.0626-0.4687 1.0625-1.0625v-18.9688c0-0.5938-0.4687-1.0937-1.0625-1.0937h-24.625z" transform="matrix(.8269532 0 0 .8236011 70.70512 33.207)" stroke="#000" stroke-width="1.2"/>
<rect ry=".8827677" height="17.38762" width="22.14235" stroke="#000" y="306.5587" x="378.569" stroke-width=".99" fill="url(#c)"/>
<rect stroke-width="1.2" transform="matrix(.8269532 0 0 .8236011 80.49886 -10.47411)" ry="1.071839" width="26.77582" stroke="#000" y="394.7184" x="353.2349" height="21.11171"/>
<rect ry=".8827677" height="17.38762" width="22.14235" stroke="#c2c2c2" stroke-miterlimit="4.1999998" y="314.0268" x="372.5197" stroke-width="1.89" fill="url(#b)"/>
<rect ry=".8827677" height="17.38762" width="22.14235" stroke="#000" stroke-dasharray="3.78, 3.78" stroke-miterlimit="4.1999998" y="314.0268" x="372.5197" stroke-width="1.89" fill="none"/>
</g>
</svg>
