<?xml version="1.0" encoding="UTF-8" standalone="no"?>
<svg xmlns:rdf="http://www.w3.org/1999/02/22-rdf-syntax-ns#" xmlns="http://www.w3.org/2000/svg" version="1.1" xmlns:cc="http://creativecommons.org/ns#" xmlns:xlink="http://www.w3.org/1999/xlink" viewBox="0 0 16 16" xmlns:dc="http://purl.org/dc/elements/1.1/">
<metadata>
<rdf:RDF>
<cc:Work rdf:about="">
<dc:format>image/svg+xml</dc:format>
<dc:type rdf:resource="http://purl.org/dc/dcmitype/StillImage"/>
</cc:Work>
</rdf:RDF>
</metadata>
<defs>
<linearGradient id="a" y2="180.6826" gradientUnits="userSpaceOnUse" x2="164.3598" gradientTransform="matrix(2.499161,0,0,1.671823,-82.24308,-178.7565)" y1="172.2059" x1="161.736">
<stop stop-color="#fff" offset="0"/>
<stop stop-color="#98b6d3" offset="1"/>
</linearGradient>
<linearGradient id="b" y2="376.4393" gradientUnits="userSpaceOnUse" x2="-557.8917" gradientTransform="matrix(1 0 0 .997925 315.4232 -138.2771)" y1="115.2545" x1="-815.2852">
<stop stop-color="#5a5a5a" offset="0"/>
<stop offset="1"/>
</linearGradient>
</defs>
<g transform="translate(-319.423,-108.194)">
<rect style="color:#000000" fill-opacity="0" height="16" width="16" y="108.194" x="319.423" stroke-width=".9868108"/>
<path stroke-linejoin="round" style="color:#000000" d="m321.4694 109.627c4.013-1.1346 7.9876-1.2788 11.9072 0-0.9623 3.0613-0.1342 5.9645-0.5253 8.9123-0.3223 2.4291-2.7191 3.8905-5.3932 5.1263-2.235-1.2411-4.943-2.2279-5.4283-5.1263-0.4927-2.942 0.3044-6.6428-0.5604-8.9123z" fill-rule="evenodd" stroke="#000" stroke-miterlimit="0" stroke-width="1.0000007" fill="url(#a)"/>
<g style="color:#000000" fill-rule="evenodd" fill="url(#b)" transform="matrix(.0362255 0 0 .0374743 341.0312 112.2468)">
<path d="m-477.8634 129.033c-47.7622-35.34842 40.4745-98.71298 71.2745-29.15779 30.8001 69.55519-22.9969 107.72809-39.6868 64.79499 17.4149-0.107 34.161-19.3157 13.7689-48.5962-20.3922-29.28054-43.9-18.63973-45.3566 12.959z"/>
<path d="m-406.5888 201.5225c42.8118-38.3565 24.4831-122.22255-19.4385-158.74789 9.1169-27.50161 24.6669-51.989057 51.026-70.86957 21.4731 16.69615 40.2672 37.030722 51.0261 70.86957-46.9482 33.5572-62.3216 121.69019-19.4385 158.74789-7.7569 14.5018-13.3081 31.1485-31.5875 37.2323-14.3245-5.0387-25.9002-19.2379-31.5876-37.2323z"/>
<path d="m-273.4425 129.033c47.7622-35.34842-40.4745-98.71298-71.2745-29.15779-30.8001 69.55519 22.9969 107.72809 39.6868 64.79499-17.4149-0.107-34.161-19.3157-13.7689-48.5962 20.3922-29.28054 43.9-18.63973 45.3566 12.959z"/>
<path stroke-width="20" d="m-443.0312 121.4688a10.001 10.001 0 1 0 0 20h135.25a10.001 10.001 0 1 0 0 -20h-135.25z"/>
</g>
</g>
</svg>
