<?xml version="1.0" encoding="UTF-8" standalone="no"?>
<!-- Generator: Adobe Illustrator 16.0.0, SVG Export Plug-In . SVG Version: 6.00 Build 0)  -->

<svg
   width="170"
   height="220"
   version="1.1"
   viewBox="0 0 170 220"
   xml:space="preserve"
   id="svg3"
   sodipodi:docname="download_pdf.zh_TW.svg"
   inkscape:version="1.3.2 (091e20ef0f, 2023-11-25)"
   xmlns:inkscape="http://www.inkscape.org/namespaces/inkscape"
   xmlns:sodipodi="http://sodipodi.sourceforge.net/DTD/sodipodi-0.dtd"
   xmlns="http://www.w3.org/2000/svg"
   xmlns:svg="http://www.w3.org/2000/svg"
   xmlns:rdf="http://www.w3.org/1999/02/22-rdf-syntax-ns#"
   xmlns:cc="http://creativecommons.org/ns#"
   xmlns:dc="http://purl.org/dc/elements/1.1/"><defs
   id="defs3" /><sodipodi:namedview
   id="namedview3"
   pagecolor="#ffffff"
   bordercolor="#000000"
   borderopacity="0.25"
   inkscape:showpageshadow="2"
   inkscape:pageopacity="0.0"
   inkscape:pagecheckerboard="0"
   inkscape:deskcolor="#d1d1d1"
   inkscape:zoom="4.1318182"
   inkscape:cx="84.950495"
   inkscape:cy="203.66337"
   inkscape:window-width="1920"
   inkscape:window-height="1144"
   inkscape:window-x="0"
   inkscape:window-y="0"
   inkscape:window-maximized="1"
   inkscape:current-layer="g3" /><metadata
   id="metadata1"><rdf:RDF><cc:Work
       rdf:about=""><dc:format>image/svg+xml</dc:format><dc:type
         rdf:resource="http://purl.org/dc/dcmitype/StillImage" /></cc:Work></rdf:RDF></metadata>
<g
   transform="matrix(.29817 0 0 .29817 9.1021 156.33)"
   stroke-width="3.3538"
   id="g3"><g
     transform="translate(-654.92 -490.76)"
     fill="#ff7e28"
     stroke-width="3.3538"
     id="g2"><g
       transform="translate(634.17)"
       stroke-width="3.3538"
       id="g1">
	<path
   d="m475.2 212.08-1.9e-4 -78.878c0-0.398-0.063-0.799-0.116-1.202-0.021-2.534-0.827-5.023-2.562-6.995l-106.2-121.31c-0.032-0.031-0.063-0.042-0.085-0.076-2.1986-2.3267-4.9923-3.4176-8.047-3.618h-260.99c-11.918 0-21.6 9.693-21.6 21.601l3.88e-4 190.48h21.6v-190.48h250.19v110.51c0 5.967 4.841 10.8 10.8 10.8h95.407v69.163zm-21.6 179.5v131.78h1e-3 -356.4v-131.78h-21.599l2.58e-4 137.62c0 11.907 9.682 21.601 21.6 21.601h356.4c11.907 0 21.6-9.693 21.6-21.601l-3.6e-4 -137.62z"
   fill="#ff7e28"
   fill-rule="evenodd"
   stroke-width="3.3538"
   id="path1" />
</g><path
       d="m701.38 195.35c-20.013 0-36.125 16.112-36.125 36.125v150.23c0 20.013 16.112 36.125 36.125 36.125h416.37c20.013 0 36.125-16.112 36.125-36.125v-150.23c0-20.013-16.112-36.125-36.125-36.125zm9.1894 40.404h62.246c36.176 0 56.99 18.189 56.99 49.717 0 33.346-20.815 52.746-56.99 52.746h-25.264v39.207h-36.982zm137.36 0h61.033c44.866 0 75.383 28.698 75.383 70.734 0 42.238-30.921 70.936-76.797 70.936h-59.619zm154.73 0h105.9l-0.2032 29.506h-68.713v31.527h63.459v29.506h-63.459v51.131h-36.984zm-255.11 29.506v43.451h23.443c14.955 0 23.646-7.6803 23.646-22.029 0-13.945-8.6912-21.422-23.646-21.422zm137.37 0.60742v81.646h25.059c21.422 0 36.58-16.369 36.58-40.621 0-24.454-15.966-41.025-38.398-41.025z"
       style="paint-order:normal"
       id="path2" /></g><path
     id="path5"
     style="font-variant-ligatures:normal;font-variant-position:normal;font-variant-caps:normal;font-variant-numeric:normal;font-variant-alternates:normal;font-feature-settings:normal;text-indent:0;text-decoration-line:none;text-decoration-style:solid;text-decoration-color:#000000;text-transform:none;text-orientation:mixed;white-space:normal;shape-padding:0;paint-order:normal"
     d="m 191.91761,117.06527 v 4.79487 h -11.59417 v 6.58313 h 11.59417 v 3.79267 h -14.8104 v 7.08095 h 14.95451 v 3.07868 h -13.02215 v 6.07874 h 13.02215 v 2.71841 h -11.73828 v 17.74496 h 11.87583 v 2.71841 h -14.08985 v 6.22285 h 14.08985 v 6.36697 h 7.51328 v -6.36697 h 6.65518 c 1.04936,0.85857 2.10137,1.88624 3.15073,3.07868 1.04936,1.19244 1.88217,2.33534 2.50224,3.4324 1.90793,-1.24017 3.71968,-2.59568 5.43681,-4.07434 1.76484,-1.43096 3.437,-2.95698 5.01104,-4.57871 1.28785,2.67113 2.81388,4.74421 4.57871,6.22286 1.76484,1.52634 3.81359,2.28608 6.1508,2.28608 2.14642,0 3.8851,-0.44967 5.22065,-1.35593 1.33555,-0.85857 2.38756,-2.40896 3.15073,-4.65077 0.81087,-2.24183 1.40667,-5.44 1.78825,-9.58974 -1.04936,-0.38156 -2.2166,-1.00174 -3.50445,-1.86031 -1.28785,-0.90626 -2.38857,-1.81211 -3.29483,-2.71841 -0.1908,4.14975 -0.47652,7.15307 -0.8581,9.01332 -0.38159,1.86025 -0.95303,2.79046 -1.7162,2.79046 -1.04936,0 -2.05266,-0.63796 -3.00662,-1.92581 -0.90627,-1.28786 -1.73907,-3.10614 -2.50225,-5.44336 4.86523,-6.77315 8.73227,-14.68898 11.59417,-23.75166 l -7.58534,-2.35813 c -0.85856,2.7665 -1.8375,5.4354 -2.93456,8.0111 -1.04937,2.52802 -2.26531,4.9599 -3.64856,7.29712 -0.47699,-2.67112 -0.8845,-5.55922 -1.21837,-8.65959 -0.28619,-3.10038 -0.54756,-6.34072 -0.78605,-9.72731 h 18.3869 v -7.08095 h -18.67511 c -0.0477,-2.43261 -0.0899,-4.91321 -0.13756,-7.44123 0,-2.52798 0.0178,-5.08168 0.0655,-7.65738 h -8.58099 c 0,5.10369 0.0731,10.13799 0.21616,15.09861 h -15.09861 v -3.79267 h 11.44351 v -6.58313 h -11.44351 v -4.79487 z m 40.27825,0.21616 -6.29491,4.21844 c 1.04936,1.00168 2.11917,2.12673 3.21623,3.3669 1.14476,1.24013 2.19677,2.48045 3.15073,3.72061 1.00166,1.19244 1.76795,2.26225 2.29263,3.21623 l 6.72068,-4.65076 c -0.95396,-1.38327 -2.30949,-3.00672 -4.07433,-4.86693 -1.71713,-1.86025 -3.38929,-3.52583 -5.01103,-5.00449 z m -126.20606,5.00449 v 8.65959 h 25.96568 v 53.09079 h 9.23603 v -34.19951 c 2.43261,1.38324 4.88886,2.86057 7.36917,4.43461 2.48031,1.52634 4.79043,3.05236 6.93685,4.57871 2.14642,1.47865 3.90945,2.85853 5.2927,4.14638 l 6.36696,-7.867 c -1.38324,-1.14474 -3.07321,-2.3607 -5.07654,-3.64855 -1.95562,-1.28786 -4.05309,-2.57687 -6.29491,-3.86472 -2.24181,-1.33555 -4.50977,-2.60023 -6.79928,-3.79267 -2.24182,-1.24017 -4.33929,-2.33434 -6.29491,-3.28829 l -1.50004,1.78825 v -11.378 h 28.9723 v -8.65959 z m 175.81859,2.10267 c -2.12427,0 -4.59261,0.0972 -7.40847,0.29477 -2.81587,0.19759 -5.48509,0.5475 -8.00456,1.04151 v 50.60819 h 11.56141 v -17.18819 h 3.62891 c 7.70632,0 13.6346,-1.36381 17.78426,-4.08088 4.14967,-2.7662 6.22286,-7.23349 6.22286,-13.40862 0,-6.12566 -2.04399,-10.52478 -6.14425,-13.19245 -4.1,-2.71707 -9.98284,-4.07433 -17.64016,-4.07433 z m 48.13215,0 c -2.0748,0 -4.57241,0.0972 -7.48708,0.29477 -2.86527,0.1482 -5.63166,0.46889 -8.29932,0.9629 v 50.01866 c 2.66766,0.5434 5.38874,0.89331 8.15521,1.04151 2.7664,0.19761 5.18295,0.29476 7.25781,0.29476 4.545,0 8.64594,-0.54424 12.30161,-1.63104 3.65566,-1.0868 6.74276,-2.71946 9.26223,-4.89313 2.56886,-2.17367 4.54489,-4.91085 5.92808,-8.22072 1.3832,-3.30993 2.07647,-7.1874 2.07647,-11.63346 0,-4.64347 -0.69327,-8.62492 -2.07647,-11.93478 -1.38319,-3.30987 -3.35922,-6.0244 -5.92808,-8.14867 -2.56887,-2.12427 -5.65597,-3.68242 -9.26223,-4.67042 -3.55667,-0.988 -7.53157,-1.48038 -11.92823,-1.48038 z m 38.77821,0.59608 v 51.34839 h 11.56141 v -21.19047 h 20.30616 v -9.70765 h -20.30616 v -10.74916 h 22.8215 v -9.70111 z m -38.18213,9.25568 c 5.77966,0 10.00076,1.38647 12.66842,4.15294 2.66767,2.7666 4.00228,6.84482 4.00228,12.22955 0,5.13799 -1.40912,9.16422 -4.22499,12.07889 -2.76673,2.91466 -7.03916,4.3691 -12.81908,4.3691 h -2.59395 c -0.69159,-0.0494 -1.31035,-0.10126 -1.85375,-0.15066 v -32.45711 c 0.74099,-0.0988 1.53143,-0.1441 2.37123,-0.1441 0.8398,-0.0494 1.65944,-0.0786 2.44984,-0.0786 z m -47.98804,0.007 c 1.67967,0 3.21516,0.11981 4.59836,0.36682 1.38327,0.19759 2.53965,0.59281 3.47825,1.18562 0.98799,0.5434 1.73312,1.28198 2.22713,2.22058 0.54341,0.93867 0.81225,2.12425 0.81225,3.55685 0,2.96407 -1.01391,4.99195 -3.03938,6.07875 -2.02547,1.0868 -5.03805,1.63104 -9.03951,1.63104 h -3.62891 v -14.81695 c 0.5928,-0.0494 1.28607,-0.10125 2.07647,-0.15065 0.8398,-0.0494 1.67554,-0.0721 2.51534,-0.0721 z m -82.76397,5.06999 h 15.74054 c 0.33389,5.19911 0.7901,10.16032 1.36248,14.88245 0.62008,4.7221 1.42853,8.99011 2.43019,12.80598 -1.00166,1.19244 -2.05367,2.31098 -3.15073,3.36034 -1.09706,1.04937 -2.23994,2.05267 -3.43239,3.00663 v -1.7162 h -13.02215 v -2.71841 h 12.16405 v -17.74496 h -12.09199 v -2.71841 h 13.09419 v -6.07874 h -13.09419 z m -13.37587,16.10082 h 6.36697 v 2.64635 h -6.36697 z m 12.66188,0 h 6.51107 v 2.64635 h -6.51107 z m -12.66188,6.64863 h 6.36697 v 2.6529 h -6.36697 z m 12.66188,0 h 6.51107 v 2.6529 h -6.51107 z" /></g></svg>
