<?xml version="1.0" encoding="UTF-8" standalone="no"?>
<!-- Created with Inkscape (http://www.inkscape.org/) -->

<svg
   width="170"
   height="220"
   version="1.1"
   viewBox="0 0 170 220"
   id="svg4"
   sodipodi:docname="download_epub.zh_TW.svg"
   inkscape:version="1.3.2 (091e20ef0f, 2023-11-25)"
   xmlns:inkscape="http://www.inkscape.org/namespaces/inkscape"
   xmlns:sodipodi="http://sodipodi.sourceforge.net/DTD/sodipodi-0.dtd"
   xmlns="http://www.w3.org/2000/svg"
   xmlns:svg="http://www.w3.org/2000/svg"
   xmlns:rdf="http://www.w3.org/1999/02/22-rdf-syntax-ns#"
   xmlns:cc="http://creativecommons.org/ns#"
   xmlns:dc="http://purl.org/dc/elements/1.1/">
  <defs
     id="defs4" />
  <sodipodi:namedview
     id="namedview4"
     pagecolor="#ffffff"
     bordercolor="#000000"
     borderopacity="0.25"
     inkscape:showpageshadow="2"
     inkscape:pageopacity="0.0"
     inkscape:pagecheckerboard="0"
     inkscape:deskcolor="#d1d1d1"
     inkscape:zoom="4.1318182"
     inkscape:cx="84.950495"
     inkscape:cy="170.022"
     inkscape:window-width="1920"
     inkscape:window-height="1144"
     inkscape:window-x="0"
     inkscape:window-y="0"
     inkscape:window-maximized="1"
     inkscape:current-layer="g3" />
  <metadata
     id="metadata1">
    <rdf:RDF>
      <cc:Work
         rdf:about="">
        <dc:format>image/svg+xml</dc:format>
        <dc:type
           rdf:resource="http://purl.org/dc/dcmitype/StillImage" />
      </cc:Work>
    </rdf:RDF>
  </metadata>
  <g
     transform="translate(3.509 15.695)"
     id="g4">
    <g
       transform="matrix(1.1269,0,0,1.1269,2.2653,-35.933)"
       stroke-width=".88736"
       id="g3">
      <g
         transform="matrix(.26458 0 0 .26458 -170.35 26.835)"
         fill="#ff7e28"
         style="paint-order:normal"
         id="g2">
        <g
           transform="translate(634.17)"
           style="paint-order:normal"
           id="g1">
          <path
             d="m475.2 212.08-1.9e-4 -78.878c0-0.398-0.063-0.799-0.116-1.202-0.021-2.534-0.827-5.023-2.562-6.995l-106.2-121.31c-0.032-0.031-0.063-0.042-0.085-0.076-2.1986-2.3267-4.9923-3.4176-8.047-3.618h-260.99c-11.918 0-21.6 9.693-21.6 21.601l3.88e-4 190.48h21.6v-190.48h250.19v110.51c0 5.967 4.841 10.8 10.8 10.8h95.407v69.163zm-21.6 179.5v131.78h1e-3 -356.4v-131.78h-21.599l2.58e-4 137.62c0 11.907 9.682 21.601 21.6 21.601h356.4c11.907 0 21.6-9.693 21.6-21.601l-3.6e-4 -137.62z"
             fill="#ff7e28"
             fill-rule="evenodd"
             style="paint-order:normal"
             id="path1" />
        </g>
        <path
           transform="translate(-12.558,-1.2695e-5)"
           d="m713.94 195.35c-20.013 0-36.125 16.112-36.125 36.125v150.23c0 20.013 16.112 36.125 36.125 36.125h416.37c20.013 0 36.125-16.112 36.125-36.125v-150.23c0-20.013-16.112-36.125-36.125-36.125zm9.1894 58.994h80.93v21.365h-54.148v19.172h48.881v21.221l-48.881 0.14649v19.318h55.613v21.365h-82.395zm98.898 0h45.076c26.196 0 41.27 13.17 41.27 36 0 24.147-15.073 38.197-41.27 38.197h-18.295v28.391h-26.781zm97.715 0h26.781v60.295c0 13.171 8.6339 21.365 20.195 21.365 11.415 0 19.318-8.0476 19.318-21.365v-60.295h26.781v60.295c0 26.928-17.853 44.195-46.244 44.195s-46.832-17.267-46.832-44.195zm111.23 0h48.734c23.269 0 38.051 10.097 38.051 25.902 0 10.683-6.8792 19.317-17.709 22.244 13.025 2.6343 21.074 12.733 21.074 25.904 0 17.562-15.366 28.537-39.514 28.537h-50.637zm26.781 20.926v19.904h20.49c7.4638 0 12-3.8048 12-10.244 0-6.1466-4.5362-9.8065-12-9.6602zm-208.95 0.43945v31.465h16.977c10.83 0 17.123-5.5605 17.123-15.951 0-10.098-6.2933-15.514-17.123-15.514zm208.95 38.93v21.512h20.49c9.3663 0 15.219-4.0964 15.219-11.121 0-6.4393-5.8525-10.537-15.219-10.391z"
           style="paint-order:normal"
           id="path2" />
      </g>
      <path
         id="path6"
         style="font-variant-ligatures:normal;font-variant-position:normal;font-variant-caps:normal;font-variant-numeric:normal;font-variant-alternates:normal;font-feature-settings:normal;text-indent:0;text-decoration-line:none;text-decoration-style:solid;text-decoration-color:#000000;text-transform:none;text-orientation:mixed;white-space:normal;shape-padding:0;paint-order:normal"
         d="m 47.213757,187.65678 v 1.26869 h -3.06773 v 1.74185 h 3.06773 v 1.00351 h -3.91872 v 1.87357 h 3.95686 v 0.8146 h -3.44557 v 1.60839 h 3.44557 v 0.71928 h -3.10587 v 4.69519 h 3.144 v 0.71927 h -3.72982 v 1.64653 h 3.72982 v 1.68465 h 1.98622 v -1.68465 h 1.76092 c 0.27765,0.22717 0.55601,0.49908 0.83366,0.81459 0.27765,0.31552 0.49801,0.61792 0.66208,0.90819 0.50482,-0.32814 0.9842,-0.6868 1.43854,-1.07804 0.46696,-0.37862 0.9094,-0.7824 1.32588,-1.21149 0.34076,0.70676 0.74454,1.25528 1.2115,1.64652 0.46696,0.40386 1.00905,0.60488 1.62746,0.60488 0.56793,0 1.0297,-0.11898 1.38308,-0.35877 0.35338,-0.22717 0.63,-0.63739 0.83193,-1.23056 0.21455,-0.59317 0.37219,-1.43939 0.47316,-2.53738 -0.27766,-0.10096 -0.5865,-0.26505 -0.92725,-0.49222 -0.34076,-0.23979 -0.63027,-0.47948 -0.87006,-0.71927 -0.0505,1.09799 -0.12609,1.89265 -0.22705,2.38486 -0.10097,0.49221 -0.2539,0.73833 -0.45583,0.73833 -0.27765,0 -0.54138,-0.17053 -0.7938,-0.51129 -0.23979,-0.34075 -0.46188,-0.82013 -0.66381,-1.43854 1.28731,-1.79213 2.3105,-3.8866 3.06774,-6.28452 l -2.00703,-0.62395 c -0.22717,0.732 -0.48619,1.43817 -0.77646,2.11968 -0.27766,0.6689 -0.59939,1.31236 -0.96539,1.93077 -0.1262,-0.70676 -0.23403,-1.47093 -0.32237,-2.29127 -0.0757,-0.82034 -0.14488,-1.67771 -0.20798,-2.57378 h 4.86505 v -1.87357 h -4.93958 c -0.0126,-0.64365 -0.0255,-1.3 -0.0381,-1.9689 0,-0.66888 0.006,-1.34457 0.0191,-2.02609 h -2.27221 c 0,1.35041 0.0193,2.68245 0.0572,3.99499 h -3.99499 v -1.00351 h 3.0296 v -1.74185 h -3.0296 v -1.26869 z m 10.65735,0.0572 -1.66559,1.11617 c 0.27766,0.26504 0.56246,0.56273 0.85273,0.89086 0.3029,0.32814 0.57952,0.65631 0.83193,0.98445 0.26503,0.31551 0.46779,0.59858 0.60661,0.85099 l 1.77998,-1.23056 c -0.25241,-0.366 -0.61281,-0.79556 -1.07977,-1.28775 -0.45434,-0.49221 -0.89679,-0.93292 -1.32589,-1.32416 z m -33.39325,1.32416 v 2.29126 h 6.87207 v 14.04746 h 2.44206 v -9.04895 c 0.64365,0.36599 1.29356,0.75688 1.94983,1.17336 0.65627,0.40386 1.26751,0.80764 1.83544,1.2115 0.56793,0.39124 1.03615,0.75635 1.40215,1.0971 l 1.68465,-2.08155 c -0.366,-0.30289 -0.81488,-0.62463 -1.34495,-0.96538 -0.51744,-0.34076 -1.07242,-0.68182 -1.66559,-1.02258 -0.59317,-0.35338 -1.19325,-0.688 -1.79904,-1.00352 -0.59317,-0.32813 -1.14815,-0.61765 -1.66559,-0.87005 l -0.3969,0.47316 v -3.01055 h 7.66587 v -2.29126 z m 58.50709,0.43849 c -0.56207,0 -1.21523,0.0257 -1.96023,0.078 -0.74506,0.0523 -1.45135,0.14314 -2.11795,0.27385 v 13.39231 h 3.05907 v -4.54961 h 0.96018 c 2.039,0 3.60766,-0.35917 4.70559,-1.07804 1.09794,-0.73193 1.64653,-1.91396 1.64653,-3.54783 0,-1.62078 -0.5426,-2.78483 -1.62746,-3.49063 -1.08486,-0.71886 -2.6398,-1.07804 -4.66573,-1.07804 z m 26.557583,0 c -0.6404,0 -1.33302,0.0317 -2.07809,0.0971 -0.745,0.0523 -1.43162,0.13887 -2.05902,0.25651 v 13.17393 c 0.79726,0.16993 1.56273,0.27451 2.29473,0.31371 0.74507,0.0523 1.48908,0.078 2.23408,0.078 v 0.002 c 2.05205,0 3.595,-0.3609 4.6276,-1.07977 1.04566,-0.71893 1.56853,-1.79039 1.56853,-3.21506 0,-0.70581 -0.15772,-1.33926 -0.47143,-1.9013 -0.31366,-0.56203 -0.90171,-1.00605 -1.76438,-1.33282 1.04567,-0.6274 1.56853,-1.48371 1.56853,-2.56858 0,-0.7189 -0.15001,-1.32063 -0.45062,-1.80424 -0.28754,-0.49671 -0.6921,-0.89527 -1.21497,-1.1959 -0.52286,-0.30062 -1.1503,-0.50978 -1.88223,-0.62741 -0.71887,-0.13071 -1.51007,-0.19585 -2.37273,-0.19585 z m -42.506343,0.15599 v 13.58816 h 9.6261 v -2.56858 h -6.56703 v -3.27398 h 5.43006 v -2.50965 h -5.43006 v -2.66737 h 6.11641 v -2.56858 z m 24.31137,0 v 8.451 c 0,0.79733 0.10458,1.52935 0.31371,2.19595 0.22219,0.65352 0.55563,1.22184 1.00004,1.70545 0.45747,0.47051 1.03179,0.84342 1.72452,1.1179 0.6928,0.26142 1.51739,0.3917 2.47152,0.3917 0.96727,0 1.80386,-0.13028 2.50965,-0.3917 0.705793,-0.26138 1.286113,-0.62829 1.743593,-1.09884 0.45745,-0.48359 0.79863,-1.05791 1.02084,-1.72451 0.2222,-0.6666 0.33277,-1.39862 0.33277,-2.19595 v -8.451 h -3.059073 v 8.19622 c 0,1.09793 -0.23485,1.8754 -0.7054,2.33287 -0.45747,0.45747 -1.05925,0.68634 -1.80425,0.68634 -0.36598,0 -0.70542,-0.0531 -1.01911,-0.15772 -0.30062,-0.10457 -0.5612,-0.27429 -0.7834,-0.50956 -0.20914,-0.24833 -0.38058,-0.56207 -0.51129,-0.94111 -0.11763,-0.3921 -0.17505,-0.86185 -0.17505,-1.41082 v -8.19622 z m 18.685463,2.3138 c 0.8104,0 1.42411,0.11056 1.84237,0.33277 0.41826,0.22223 0.62742,0.6088 0.62742,1.15777 0,0.53592 -0.20144,0.92849 -0.60662,1.17683 -0.4052,0.23527 -1.07983,0.35183 -2.02089,0.35183 h -1.48881 v -2.96027 c 0.23527,-0.0261 0.50183,-0.0399 0.80247,-0.0399 0.30062,-0.0131 0.58265,-0.0191 0.84406,-0.0191 z m -26.852223,0.13692 c 0.44442,0 0.84899,0.0335 1.21496,0.0988 0.36597,0.0523 0.6737,0.15686 0.92205,0.31371 0.26141,0.14378 0.45685,0.33921 0.58755,0.58755 0.14378,0.24834 0.21665,0.56207 0.21665,0.94112 0,0.78423 -0.26831,1.32084 -0.8042,1.60839 -0.53586,0.28756 -1.33306,0.43156 -2.39179,0.43156 h -0.96018 v -3.92219 c 0.15686,-0.0131 0.33856,-0.0251 0.54768,-0.0381 0.2222,-0.0131 0.44509,-0.0208 0.66728,-0.0208 z m -33.88548,1.46107 h 4.16484 c 0.0883,1.37565 0.20905,2.68835 0.3605,3.9378 0.16407,1.24943 0.37798,2.37872 0.64301,3.38837 -0.26503,0.31551 -0.54165,0.61147 -0.83192,0.88913 -0.29028,0.27765 -0.59441,0.54312 -0.90993,0.79553 v -0.4541 h -3.44557 v -0.71927 h 3.21853 v -4.69519 h -3.19946 v -0.71928 h 3.46463 v -1.60839 h -3.46463 z m 59.091173,3.75408 h 1.92037 c 0.87571,0 1.54861,0.13801 2.01916,0.4125 0.47053,0.2614 0.70714,0.70542 0.70714,1.33282 0,0.70578 -0.28204,1.18926 -0.84406,1.45067 -0.56207,0.26141 -1.30008,0.3917 -2.21501,0.3917 -0.31369,0 -0.60172,-0.006 -0.86313,-0.0191 -0.26142,-0.0131 -0.50227,-0.0328 -0.72447,-0.0589 z m -62.630333,0.50436 h 1.68465 v 0.70194 h -1.68465 z m 3.35024,0 h 1.72279 v 0.70194 h -1.72279 z m -3.35024,1.76091 h 1.68465 v 0.70021 h -1.68465 z m 3.35024,0 h 1.72279 v 0.70021 h -1.72279 z" />
    </g>
  </g>
</svg>
